<?xml version="1.0" encoding="UTF-8"?>
<svg width="256px" height="256px" viewBox="0 0 256 256" version="1.1" xmlns="http://www.w3.org/2000/svg" xmlns:xlink="http://www.w3.org/1999/xlink">
    <title>Hobby Chef</title>
    <defs>
        <linearGradient x1="100%" y1="0%" x2="0%" y2="100%" id="linearGradient-1">
            <stop stop-color="#F98169" offset="0%"></stop>
            <stop stop-color="#F03F1C" offset="100%"></stop>
        </linearGradient>
        <circle id="path-2" cx="128" cy="128" r="128"></circle>
        <filter x="-13.7%" y="-9.8%" width="127.3%" height="127.3%" filterUnits="objectBoundingBox" id="filter-3">
            <feOffset dx="0" dy="10" in="SourceAlpha" result="shadowOffsetOuter1"></feOffset>
            <feGaussianBlur stdDeviation="10" in="shadowOffsetOuter1" result="shadowBlurOuter1"></feGaussianBlur>
            <feColorMatrix values="0 0 0 0 0   0 0 0 0 0   0 0 0 0 0  0 0 0 0.05 0" type="matrix" in="shadowBlurOuter1"></feColorMatrix>
        </filter>
    </defs>
    <g id="chef-hat2" stroke="none" stroke-width="1" fill="none" fill-rule="evenodd">
        <g id="Group-2">
            <g>
                <g id="background-overlay">
                    <g id="Oval">
                        <use fill="black" fill-opacity="1" filter="url(#filter-3)" xlink:href="#path-2"></use>
                        <use fill="url(#linearGradient-1)" fill-rule="evenodd" xlink:href="#path-2"></use>
                        <use fill="#FFFFFF" fill-rule="evenodd" xlink:href="#path-2"></use>
                        <use fill="#000000" fill-rule="evenodd" xlink:href="#path-2"></use>
                        <use fill="#BF424D" fill-rule="evenodd" xlink:href="#path-2"></use>
                    </g>
                </g>
                <path d="M165.5,189.77312 L165.5,198 L90.5,198 L90.5,189.77312 L165.5,189.77312 Z M99.5476207,137.235379 C107.431183,144.821883 118.204383,149.495684 130.083333,149.495684 C140.937636,149.495684 150.868719,145.593408 158.514619,139.133322 C160.599113,140.860678 162.951048,142.283724 165.500251,143.333183 L165.5,186.516646 L90.5,186.516646 L90.5002802,143.33296 C93.9306542,141.92062 97.0035238,139.83178 99.5476207,137.235379 Z M130.083333,59 C149.267797,59 165.568228,71.1902745 171.470433,88.1526195 C172.915735,87.916885 174.401674,87.7940814 175.916667,87.7940814 C190.874379,87.7940814 203,99.7648058 203,114.531443 C203,129.29808 190.874379,141.268804 175.916667,141.268804 C169.291059,141.268804 163.221135,138.920028 158.514619,135.019881 C150.868719,141.479968 140.937636,145.382244 130.083333,145.382244 C118.204383,145.382244 107.431183,140.708442 99.5476207,133.121939 C94.6254107,138.145344 87.7238535,141.268804 80.0833333,141.268804 C65.1256214,141.268804 53,129.29808 53,114.531443 C53,99.7648058 65.1256214,87.7940814 80.0833333,87.7940814 C82.9803282,87.7940814 85.771087,88.2431219 88.3880902,89.0745462 C94.0114341,71.6339321 110.552886,59 130.083333,59 Z" id="Combined-Shape" stroke="#FFFFFF" stroke-width="4" fill="#009FFF"></path>
            </g>
        </g>
    </g>
</svg>